…
##### Moving reason: forced and responsive move

First, we clean all variables. 


```r
# check levels
mars %>% select(starts_with(c("forced", "responsive"))) %>% 
  pivot_longer(everything()) %>% 
  group_by(name, value) %>% 
  count()
```

```
## # A tibble: 55 × 3
## # Groups:   name, value [55]
##    name     value     n
##    <chr>    <chr> <int>
##  1 forced_1 ""       30
##  2 forced_1 "-2"      2
##  3 forced_1 "-4"     10
##  4 forced_1 "no"    497
##  5 forced_1 "yes"    40
##  6 forced_1  <NA>     1
##  7 forced_2 ""       66
##  8 forced_2 "-2"      7
##  9 forced_2 "-4"     14
## 10 forced_2 "no"    458
## # ℹ 45 more rows
```
…
# check cleaning method
mars %>% 
  mutate(
    across(starts_with(c("forced", "responsive")), 
           # apply cleaning function
           clean, 
           .names = "{col}_cleaned"
    )
  ) %>% 
  select(starts_with("forced_1"))
```

```
## # A tibble: 580 × 2
##    forced_1 forced_1_cleaned
##    <chr>               <dbl>
##  1 no                      0
##  2 no                      0
##  3 no                      0
##  4 no                      0
##  5 no                      0
##  6 no                      0
##  7 no                      0
##  8 no                      0
##  9 no                      0
## 10 yes                     1
## # ℹ 570 more rows
```
…
##### Race

Clean and Re-code NA's


```r
# check levels
mars %>% select(starts_with("race")) %>% 
  pivot_longer(everything()) %>% 
  group_by(name, value) %>% 
  count()
```

```
## # A tibble: 30 × 3
## # Groups:   name, value [30]
##    name   value                                           n
##    <chr>  <chr>                                       <int>
##  1 race_1 "american indian or alaska native"              9
##  2 race_1 "asian"                                         5
##  3 race_1 "black or african american"                   285
##  4 race_1 "blank"                                         3
##  5 race_1 "don't know"                                    2
##  6 race_1 "native hawaiian or other pacific islander"     1
##  7 race_1 "refused"                                       2
##  8 race_1 "something else (specify)"                     74
##  9 race_1 "white"                                       199
## 10 race_2 ""                                            283
## # ℹ 20 more rows
```
…
# recode NAs
mars <- mars %>% 
  # make sure answers written to lower case
  mutate(across(starts_with("criminal"), recodeNAs)
         )

mars %>% select(starts_with("criminal"), starts_with("interview")) %>% filter(criminal_record == "yes")
```

```
## # A tibble: 107 × 3
##    criminal_record criminal_record_month criminal_record_year
##    <chr>           <chr>                 <chr>               
##  1 yes             <NA>                  2002                
##  2 yes             3                     1992                
##  3 yes             <NA>                  2004                
##  4 yes             <NA>                  1997                
##  5 yes             5                     1994                
##  6 yes             5                     2006                
##  7 yes             1                     1974                
##  8 yes             <NA>                  1985                
##  9 yes             4                     1996                
## 10 yes             <NA>                  2002                
## # ℹ 97 more rows
```
…
